Visualizing Microbiome Taxonomy with Metacoder in R: A Step-by-Step Guide | Xin (David) Zhao
…
  2. Parse the data into a taxmap object
 
obj <- parse_tax_data(tax_abund, class_cols = 4:9, named_by_rank = TRUE)

> print(obj)
<Taxmap>
  66 taxa: ab. Pseudomonadati, ac. Bacillati ... co. Lactobacillus
  66 edges: NA->ab, NA->ac, ab->ad ... bd->cm, be->cn, at->co
  2 data sets:
    tax_data:
      # A tibble: 36 × 11
        taxon_id Species_label Fermented.foods1 normalized_prop
        <chr>    <chr>                    <int>           <dbl>
      1 bf       spp_1                       16           0.139
      2 bg       spp_10                     101           0.878
      3 bh       spp_11                     101           0.878
      # ℹ 33 more rows
      # ℹ 7 more variables: Kingdom <chr>, Phylum <chr>, Class <chr>,
      #   Order <chr>, Family <chr>, Genus <chr>, Species <lgl>
      # ℹ Use `print(n = ...)` to see more rows
    tax_abund:
      # A tibble: 66 × 2
        taxon_id normalized_prop
        <chr>              <dbl>
      1 ab                 0.835
      2 ac                20.7  
      3 ad                 0.835
      # ℹ 63 more rows
      # ℹ Use `print(n = ...)` to see more rows
…
